--- 
caminho_danfe: /arquivos/12404942000114/201710/DANFEs/35171012404942000114550010000459151127440416.pdf
caminho_xml_nota_fiscal: /arquivos/12404942000114/201710/XMLs/35171012404942000114550010000459151127440416-nfe.xml
chave_nfe: NFe35171012404942000114550010000459151127440416
mensagem_sefaz: "Autorizado o uso da NF-e"
numero: "45915"
serie: "1"
status: autorizado
status_sefaz: "100"
