--- 
caminho_danfe: /arquivos_development/12404942000114/201711/DANFEs/35171112404942000114550010000002311092703035.pdf
caminho_xml_nota_fiscal: /arquivos_development/12404942000114/201711/XMLs/35171112404942000114550010000002311092703035-nfe.xml
chave_nfe: NFe35171112404942000114550010000002311092703035
mensagem_sefaz: "Autorizado o uso da NF-e"
numero: "231"
serie: "1"
status: autorizado
status_sefaz: "100"
