--- 
caminho_danfe: /arquivos_development/26124808000174/201711/DANFEs/35171126124808000174550010000000081395151188.pdf
caminho_xml_nota_fiscal: /arquivos_development/26124808000174/201711/XMLs/35171126124808000174550010000000081395151188-nfe.xml
chave_nfe: NFe35171126124808000174550010000000081395151188
mensagem_sefaz: "Autorizado o uso da NF-e"
numero: "8"
serie: "1"
status: autorizado
status_sefaz: "100"
