--- 
caminho_danfe: /arquivos_development/26124808000174/201802/DANFEs/35180226124808000174550010000000321609752487.pdf
caminho_xml_nota_fiscal: /arquivos_development/26124808000174/201802/XMLs/35180226124808000174550010000000321609752487-nfe.xml
chave_nfe: NFe35180226124808000174550010000000321609752487
mensagem_sefaz: "Autorizado o uso da NF-e"
numero: "32"
serie: "1"
status: autorizado
status_sefaz: "100"
