--- 
caminho_danfe: /arquivos_development/26124808000174/201802/DANFEs/35180226124808000174550010000000331751591240.pdf
caminho_xml_nota_fiscal: /arquivos_development/26124808000174/201802/XMLs/35180226124808000174550010000000331751591240-nfe.xml
chave_nfe: NFe35180226124808000174550010000000331751591240
mensagem_sefaz: "Autorizado o uso da NF-e"
numero: "33"
serie: "1"
status: autorizado
status_sefaz: "100"
