--- 
caminho_danfe: /arquivos_development/26124808000174/201803/DANFEs/35180326124808000174550010000000371128941444.pdf
caminho_xml_nota_fiscal: /arquivos_development/26124808000174/201803/XMLs/35180326124808000174550010000000371128941444-nfe.xml
chave_nfe: NFe35180326124808000174550010000000371128941444
mensagem_sefaz: "Autorizado o uso da NF-e"
numero: "37"
serie: "1"
status: autorizado
status_sefaz: "100"
