--- 
caminho_danfe: /arquivos_development/26124808000174/201804/DANFEs/35180426124808000174550010000000531741317757.pdf
caminho_xml_nota_fiscal: /arquivos_development/26124808000174/201804/XMLs/35180426124808000174550010000000531741317757-nfe.xml
chave_nfe: NFe35180426124808000174550010000000531741317757
mensagem_sefaz: "Autorizado o uso da NF-e"
numero: "53"
serie: "1"
status: autorizado
status_sefaz: "100"
