--- 
caminho_danfe: /arquivos_development/26124808000174/201903/DANFEs/35190326124808000174550010000000851687699520.pdf
caminho_xml_nota_fiscal: /arquivos_development/26124808000174/201903/XMLs/35190326124808000174550010000000851687699520-nfe.xml
chave_nfe: NFe35190326124808000174550010000000851687699520
mensagem_sefaz: "Autorizado o uso da NF-e"
numero: "85"
serie: "1"
status: autorizado
status_sefaz: "100"
